Programming Homework 3/copy_array_to_array_imp2_sp10/copy_array_to_array_imp2_sp10/copy_array_to_array_imp2_sp10.sim/sim_1/behav/xsim/simulate.log
Vivado Simulator 2020.2
Time resolution is 1 ps

 Implementation #2 results 


 Test #1: Negative numbers start from M[3] 


 The M and the N arrays 

           
	 0	 2	0010	1001	 -7
           
	 1	 5	0101	1010	 -6
           
	 2	 7	0111	1011	 -5
           
	 3	 9	1001	1100	 -4
           
	 4	10	1010	1101	 -3
           
	 5	11	1011	1110	 -2
           
	 6	12	1100	1111	 -1
           
	 7	13	1101	0010	  2
           
	 8	14	1110	0101	  5
           
	 9	15	1111	0111	  7

 Clocks_taken =          13 . 


 Test #2: Last number negative 


 The M and the N arrays 

           
	 0	 0	0000	1001	 -7
           
	 1	 1	0001	0000	  0
           
	 2	 2	0010	0001	  1
           
	 3	 3	0011	0010	  2
           
	 4	 4	0100	0011	  3
           
	 5	 5	0101	0100	  4
           
	 6	 6	0110	0101	  5
           
	 7	 7	0111	0110	  6
           
	 8	 7	0111	0111	  7
           
	 9	 9	1001	0111	  7

 Clocks_taken =          19 . 


 Test #3: All numbers negative 


 The M and the N arrays 

           
	 0	 8	1000	1000	 -8
           
	 1	 8	1000	1000	 -8
           
	 2	 8	1000	1000	 -8
           
	 3	 9	1001	1001	 -7
           
	 4	10	1010	1010	 -6
           
	 5	11	1011	1011	 -5
           
	 6	12	1100	1100	 -4
           
	 7	13	1101	1101	 -3
           
	 8	14	1110	1110	 -2
           
	 9	15	1111	1111	 -1

 Clocks_taken =          10 . 


 Test #4: All numbers positive 


 The M and the N arrays 

           
	 0	 0	0000	0000	  0
           
	 1	 0	0000	0000	  0
           
	 2	 0	0000	0000	  0
           
	 3	 1	0001	0001	  1
           
	 4	 2	0010	0010	  2
           
	 5	 3	0011	0011	  3
           
	 6	 4	0100	0100	  4
           
	 7	 5	0101	0101	  5
           
	 8	 6	0110	0110	  6
           
	 9	 7	0111	0111	  7

 Clocks_taken =          20 . 


 All tests completed. 

